VDC encodings
…
$attribute
# A tibble: 63 × 4
      id name          variable value       
   <int> <chr>         <chr>    <named list>
 1     0 axis          x        <chr [1]>   
 2     1 units         x        <chr [1]>   
 3     2 standard_name x        <chr [1]>   
 4     3 grid_mapping  x        <chr [1]>   
 5     4 coordinates   x        <chr [1]>   
 6     5 _FillValue    x        <dbl [1]>   
 7     0 axis          y        <chr [1]>   
 8     1 units         y        <chr [1]>   
 9     2 standard_name y        <chr [1]>   
10     3 grid_mapping  y        <chr [1]>   
# ℹ 53 more rows
…
$attribute
# A tibble: 28 × 4
      id name                        variable   value       
   <int> <chr>                       <chr>      <named list>
 1     0 grid_mapping                population <chr [1]>   
 2     1 coordinates                 population <chr [1]>   
 3     2 geometry                    population <chr [1]>   
 4     0 grid_mapping_name           crs        <chr [1]>   
 5     1 long_name                   crs        <chr [1]>   
 6     2 longitude_of_prime_meridian crs        <dbl [1]>   
 7     3 semi_major_axis             crs        <dbl [1]>   
 8     4 inverse_flattening          crs        <dbl [1]>   
 9     5 spatial_ref                 crs        <chr [1]>   
10     6 crs_wkt                     crs        <chr [1]>   
# ℹ 18 more rows
…
